     NOTA DE REMISION 
@COMPANIA
@NITESTACION
@ESTACION
@DIRECCION
					
No.Remision : @FACTURA
Fecha    : @FECFACTU Hora:@HORA		
Turno    : @TURNO    Isla:@ISLA
Posicion : @CARA
Atendio  : @VENDEDOR
Placa    : @PLACA
		
Codigo Articulo:@CODIGOARTICULO 		
Articulo : @ARTICULO
Precio	 : @PRECIO  
Cant.    : @VOLUMEN
SubTotal : @SUBTOTAL
%IVA     : @PORCIVA IVA :@TOTALIVA
Total    : @TOTAL

Forma de Pago: @FORMAPAGO
Vendedor: @VENDEDOR
--------------------------------------------				
					